{
  "project_info": {
    "project_number": "150742207982",
    "firebase_url": "https://projek-nana.firebaseio.com",
    "project_id": "projek-nana",
    "storage_bucket": "projek-nana.appspot.com"
  },
  "client": [
    {
      "client_info": {
        "mobilesdk_app_id": "1:150742207982:android:e194be5705d5269c",
        "android_client_info": {
          "package_name": "com.musicstream.onlinemp3"
        }
      },
      "oauth_client": [
        {
          "client_id": "150742207982-8ukhok7dj6hsaiknp933qmgu4bno98k5.apps.googleusercontent.com",
          "client_type": 1,
          "android_info": {
            "package_name": "com.musicstream.onlinemp3",
            "certificate_hash": "5bb70003a72711e83520bf6938c39a97e7de96bb"
          }
        },
        {
          "client_id": "150742207982-7sl18p7s14b4fd3b89lkmda1fn0ms3bq.apps.googleusercontent.com",
          "client_type": 3
        }
      ],
      "api_key": [
        {
          "current_key": "AIzaSyAK-3f8F19hYNj4KiMQ-vcZ9IjJJZ3ND9M"
        }
      ],
      "services": {
        "appinvite_service": {
          "other_platform_oauth_client": [
            {
              "client_id": "150742207982-7sl18p7s14b4fd3b89lkmda1fn0ms3bq.apps.googleusercontent.com",
              "client_type": 3
            }
          ]
        }
      }
    },
    {
      "client_info": {
        "mobilesdk_app_id": "1:150742207982:android:49077b9e7a42bb1f",
        "android_client_info": {
          "package_name": "com.viavallensong.onlinemp3"
        }
      },
      "oauth_client": [
        {
          "client_id": "150742207982-il80ajecmd0pqqugcah4c1vd27cuuer3.apps.googleusercontent.com",
          "client_type": 1,
          "android_info": {
            "package_name": "com.viavallensong.onlinemp3",
            "certificate_hash": "5bb70003a72711e83520bf6938c39a97e7de96bb"
          }
        },
        {
          "client_id": "150742207982-7sl18p7s14b4fd3b89lkmda1fn0ms3bq.apps.googleusercontent.com",
          "client_type": 3
        }
      ],
      "api_key": [
        {
          "current_key": "AIzaSyAK-3f8F19hYNj4KiMQ-vcZ9IjJJZ3ND9M"
        }
      ],
      "services": {
        "appinvite_service": {
          "other_platform_oauth_client": [
            {
              "client_id": "150742207982-7sl18p7s14b4fd3b89lkmda1fn0ms3bq.apps.googleusercontent.com",
              "client_type": 3
            }
          ]
        }
      }
    },
    {
      "client_info": {
        "mobilesdk_app_id": "1:150742207982:android:0a3df96c70b44818",
        "android_client_info": {
          "package_name": "inspekstor.pens.com.inspectorapp"
        }
      },
      "oauth_client": [
        {
          "client_id": "150742207982-vaq59ni377ffe4ottq1dkvqlt8ipt1re.apps.googleusercontent.com",
          "client_type": 1,
          "android_info": {
            "package_name": "inspekstor.pens.com.inspectorapp",
            "certificate_hash": "5bb70003a72711e83520bf6938c39a97e7de96bb"
          }
        },
        {
          "client_id": "150742207982-7sl18p7s14b4fd3b89lkmda1fn0ms3bq.apps.googleusercontent.com",
          "client_type": 3
        }
      ],
      "api_key": [
        {
          "current_key": "AIzaSyAK-3f8F19hYNj4KiMQ-vcZ9IjJJZ3ND9M"
        }
      ],
      "services": {
        "appinvite_service": {
          "other_platform_oauth_client": [
            {
              "client_id": "150742207982-7sl18p7s14b4fd3b89lkmda1fn0ms3bq.apps.googleusercontent.com",
              "client_type": 3
            }
          ]
        }
      }
    },
    {
      "client_info": {
        "mobilesdk_app_id": "1:150742207982:android:3fddf63bb70cd4b1",
        "android_client_info": {
          "package_name": "nzhi.apps.sidesa"
        }
      },
      "oauth_client": [
        {
          "client_id": "150742207982-gulh4ohvsdo4rda1qthd08gln88o4hbj.apps.googleusercontent.com",
          "client_type": 1,
          "android_info": {
            "package_name": "nzhi.apps.sidesa",
            "certificate_hash": "5bb70003a72711e83520bf6938c39a97e7de96bb"
          }
        },
        {
          "client_id": "150742207982-7sl18p7s14b4fd3b89lkmda1fn0ms3bq.apps.googleusercontent.com",
          "client_type": 3
        }
      ],
      "api_key": [
        {
          "current_key": "AIzaSyAK-3f8F19hYNj4KiMQ-vcZ9IjJJZ3ND9M"
        }
      ],
      "services": {
        "appinvite_service": {
          "other_platform_oauth_client": [
            {
              "client_id": "150742207982-7sl18p7s14b4fd3b89lkmda1fn0ms3bq.apps.googleusercontent.com",
              "client_type": 3
            }
          ]
        }
      }
    },
    {
      "client_info": {
        "mobilesdk_app_id": "1:150742207982:android:09e01beb153f40b2",
        "android_client_info": {
          "package_name": "pos.sabana.com.sabanaposapp"
        }
      },
      "oauth_client": [
        {
          "client_id": "150742207982-vcaf25rd391h8lm3qkim7tmc2ipqra70.apps.googleusercontent.com",
          "client_type": 1,
          "android_info": {
            "package_name": "pos.sabana.com.sabanaposapp",
            "certificate_hash": "0c5f5385feb4a5712a32e05a2e1a3f19ed933fb6"
          }
        },
        {
          "client_id": "150742207982-7sl18p7s14b4fd3b89lkmda1fn0ms3bq.apps.googleusercontent.com",
          "client_type": 3
        }
      ],
      "api_key": [
        {
          "current_key": "AIzaSyAK-3f8F19hYNj4KiMQ-vcZ9IjJJZ3ND9M"
        }
      ],
      "services": {
        "appinvite_service": {
          "other_platform_oauth_client": [
            {
              "client_id": "150742207982-7sl18p7s14b4fd3b89lkmda1fn0ms3bq.apps.googleusercontent.com",
              "client_type": 3
            }
          ]
        }
      }
    }
  ],
  "configuration_version": "1"
}